assignment-7/Main_Controller_test_bench.vcd
$date
	Thu Apr 13 20:41:06 2023
$end
$version
	Icarus Verilog
$end
$timescale
	1ps
$end
$scope module Main_Controller_test_bench $end
$var reg 1 ! clk $end
$var reg 1 " reset $end
$scope module M1 $end
$var wire 32 # Data1 [31:0] $end
$var wire 32 $ Data2 [31:0] $end
$var wire 1 ! clk $end
$var wire 1 " reset $end
$var wire 10 % ra [9:0] $end
$var wire 6 & func [5:0] $end
$var wire 32 ' Result [31:0] $end
$var wire 1 ( Opcode_Data $end
$var wire 4 ) Opcode_Branch [3:0] $end
$var wire 4 * Opcode_ALU [3:0] $end
$var wire 6 + Opcode [5:0] $end
$var wire 16 , Offset [15:0] $end
$var wire 10 - Next_PC [9:0] $end
$var wire 3 . Mode_Type [2:0] $end
$var wire 32 / Instruction [31:0] $end
$var wire 32 0 Dataout [31:0] $end
$var reg 10 1 PC [9:0] $end
$scope module I1 $end
$var wire 10 2 PC [9:0] $end
$var wire 1 ! clk $end
$var wire 1 " reset $end
$var wire 32 3 Instruction [31:0] $end
$scope module GI $end
$var wire 10 4 PC [9:0] $end
$var wire 1 ! clk $end
$var wire 1 " reset $end
$var reg 32 5 Instruction [31:0] $end
$upscope $end
$upscope $end
$scope module I2 $end
$var wire 32 6 Instruction [31:0] $end
$var wire 6 7 opcode [5:0] $end
$var wire 6 8 func [5:0] $end
$var reg 3 9 Mode [2:0] $end
$var reg 4 : Opcode_ALU [3:0] $end
$var reg 4 ; Opcode_Branch [3:0] $end
$var reg 1 ( Opcode_Data $end
$upscope $end
$scope module I3 $end
$var wire 32 < Data1 [31:0] $end
$var wire 32 = Data2 [31:0] $end
$var wire 32 > Instruction [31:0] $end
$var wire 4 ? Opcode_ALU [3:0] $end
$var wire 16 @ Immediate_Branch [15:0] $end
$var reg 32 A Result [31:0] $end
$upscope $end
$scope module I4 $end
$var wire 32 B Data1 [31:0] $end
$var wire 32 C Data2 [31:0] $end
$var wire 32 D Instruction [31:0] $end
$var wire 4 E Opcode_Branch [3:0] $end
$var wire 10 F PC [9:0] $end
$var wire 26 G Immediate_Jump [25:0] $end
$var wire 16 H Immediate_Branch [15:0] $end
$var reg 10 I Next_PC [9:0] $end
$var reg 10 J ra [9:0] $end
$upscope $end
$scope module I5 $end
$var wire 32 K Address [31:0] $end
$var wire 32 L Data_Value [31:0] $end
$var wire 32 M Instruction [31:0] $end
$var wire 1 ( Opcode_Data $end
$var wire 10 N PC [9:0] $end
$var wire 1 " reset $end
$var wire 16 O Offset [15:0] $end
$var reg 32 P Dataout [31:0] $end
$var integer 32 Q i [31:0] $end
$upscope $end
$upscope $end
$upscope $end
$enddefinitions $end
$comment Show the parameter values. $end
$dumpall
$end
#0
$dumpvars
b10000000000 Q
bx P
bx O
b0 N
bx M
bx L
bx K
bx J
bx I
bx H
bx G
b0 F
bx E
bx D
bx C
bx B
bx A
bx @
bx ?
bx >
bx =
bx <
bx ;
bx :
bx 9
bx 8
bx 7
bx 6
bx 5
b0 4
bx 3
b0 2
b0 1
bx 0
bx /
bx .
bx -
bx ,
bx +
bx *
bx )
x(
bx '
bx &
bx %
bx $
bx #
0"
0!
$end
#10
b10100 0
b10100 P
0(
b100 .
b100 9
b110 +
b100011 7
b0 8
b0 @
b10000000000000000000 G
b0 H
b0 O
b0 ,
b0 #
b0 <
b0 B
b0 K
b0 &
b10001100000010000000000000000000 /
b10001100000010000000000000000000 3
b10001100000010000000000000000000 5
b10001100000010000000000000000000 6
b10001100000010000000000000000000 >
b10001100000010000000000000000000 D
b10001100000010000000000000000000 M
1!
#20
b10100 $
b10100 =
b10100 C
b10100 L
b1 1
b1 2
b1 4
b1 F
b1 N
0!
#30
b10010000000000000000 G
bx $
bx =
bx C
bx L
b10001100000010010000000000000000 /
b10001100000010010000000000000000 3
b10001100000010010000000000000000 5
b10001100000010010000000000000000 6
b10001100000010010000000000000000 >
b10001100000010010000000000000000 D
b10001100000010010000000000000000 M
1!
#40
b10100 $
b10100 =
b10100 C
b10100 L
b10 1
b10 2
b10 4
b10 F
b10 N
0!
#50
b1 '
b1 A
b100 *
b100 :
b100 ?
b10 .
b10 9
b101 0
b101 P
b10000 +
b1000 7
b1 8
b1 @
b1010000000000000001 G
b1 H
b1 O
b1 ,
bx $
bx =
bx C
bx L
b1 &
b100000000001010000000000000001 /
b100000000001010000000000000001 3
b100000000001010000000000000001 5
b100000000001010000000000000001 6
b100000000001010000000000000001 >
b100000000001010000000000000001 D
b100000000001010000000000000001 M
1!
#60
b1 $
b1 =
b1 C
b1 L
b11 1
b11 2
b11 4
b11 F
b11 N
0!
#70
b10 .
b10 9
b10011 '
b10011 A
b1111 0
b1111 P
b111111 8
b1111111111111111 @
b1001010011111111111111111 G
b1111111111111111 H
b1111111111111111 O
b1111111111111111 ,
b10100 $
b10100 =
b10100 C
b10100 L
b10100 #
b10100 <
b10100 B
b10100 K
b111111 &
b100001001010011111111111111111 /
b100001001010011111111111111111 3
b100001001010011111111111111111 5
b100001001010011111111111111111 6
b100001001010011111111111111111 >
b100001001010011111111111111111 D
b100001001010011111111111111111 M
1!
#80
b10010 '
b10010 A
b10001 0
b10001 P
b10011 #
b10011 <
b10011 B
b10011 K
b10011 $
b10011 =
b10011 C
b10011 L
b100 1
b100 2
b100 4
b100 F
b100 N
0!
#90
b100 -
b100 I
b100 )
b100 ;
b100 E
b0 .
b0 9
b100110 '
b100110 A
b0 0
b0 P
b110010 +
b11001 7
b10011 8
b10011 @
b1001000000000000000010011 G
b10011 H
b10011 O
b10011 ,
b0 $
b0 =
b0 C
b0 L
b10011 &
b1100101001000000000000000010011 /
b1100101001000000000000000010011 3
b1100101001000000000000000010011 5
b1100101001000000000000000010011 6
b1100101001000000000000000010011 >
b1100101001000000000000000010011 D
b1100101001000000000000000010011 M
1!
#100
b101 -
b101 I
b101 1
b101 2
b101 4
b101 F
b101 N
0!
#110
b0 *
b0 :
b0 ?
b1 .
b1 9
b0 '
b0 A
b0 +
b0 7
b100000 8
b101000000100000 @
b101000000100000 G
b101000000100000 H
b101000000100000 O
b101000000100000 ,
b0 #
b0 <
b0 B
b0 K
b100000 &
b101000000100000 /
b101000000100000 3
b101000000100000 5
b101000000100000 6
b101000000100000 >
b101000000100000 D
b101000000100000 M
1!
#120
b110 -
b110 I
b110 1
b110 2
b110 4
b110 F
b110 N
0!
#130
b11 )
b11 ;
b11 E
b0 .
b0 9
b10011 '
b10011 A
b110 -
b110 I
b110000 +
b11000 7
b111100 8
b1111111111111100 @
b1010010011111111111111100 G
b1111111111111100 H
b1111111111111100 O
b1111111111111100 ,
b10011 $
b10011 =
b10011 C
b10011 L
b111100 &
b1100001010010011111111111111100 /
b1100001010010011111111111111100 3
b1100001010010011111111111111100 5
b1100001010010011111111111111100 6
b1100001010010011111111111111100 >
b1100001010010011111111111111100 D
b1100001010010011111111111111100 M
1!
#140
b111 -
b111 I
b111 1
b111 2
b111 4
b111 F
b111 N
0!
#150
b1 .
b1 9
b1 '
b1 A
b100111 -
b100111 I
b0 +
b0 7
b100000 8
b111000000100000 @
b101010100111000000100000 G
b111000000100000 H
b111000000100000 O
b111000000100000 ,
b0 $
b0 =
b0 C
b0 L
b1 #
b1 <
b1 B
b1 K
b100000 &
b101010100111000000100000 /
b101010100111000000100000 3
b101010100111000000100000 5
b101010100111000000100000 6
b101010100111000000100000 >
b101010100111000000100000 D
b101010100111000000100000 M
1!
#160
b101000 -
b101000 I
b1000 1
b1000 2
b1000 4
b1000 F
b1000 N
0!
#170
b100 .
b100 9
bx '
bx A
b1000 -
b1000 I
b101 0
b101 P
b110 +
b100011 7
b0 8
b0 @
b1110010110000000000000000 G
b0 H
b0 O
b0 ,
bx $
bx =
bx C
bx L
b0 &
b10001101110010110000000000000000 /
b10001101110010110000000000000000 3
b10001101110010110000000000000000 5
b10001101110010110000000000000000 6
b10001101110010110000000000000000 >
b10001101110010110000000000000000 D
b10001101110010110000000000000000 M
1!
#180
b110 '
b110 A
b1001 -
b1001 I
b101 $
b101 =
b101 C
b101 L
b1001 1
b1001 2
b1001 4
b1001 F
b1001 N
0!
#190
b100 *
b100 :
b100 ?
b10 .
b10 9
b1 '
b1 A
b10xx -
b10xx I
b10000 +
b1000 7
b1 8
b1 @
b1010011000000000000000001 G
b1 H
b1 O
b1 ,
bx $
bx =
bx C
bx L
b0 #
b0 <
b0 B
b0 K
b1 &
b100001010011000000000000000001 /
b100001010011000000000000000001 3
b100001010011000000000000000001 5
b100001010011000000000000000001 6
b100001010011000000000000000001 >
b100001010011000000000000000001 D
b100001010011000000000000000001 M
1!
#200
b1010 -
b1010 I
b1 $
b1 =
b1 C
b1 L
b1010 1
b1010 2
b1010 4
b1010 F
b1010 N
0!
#210
b0 *
b0 :
b0 ?
b1 .
b1 9
b10 '
b10 A
b101010 -
b101010 I
b0 0
b0 P
b0 +
b0 7
b100000 8
b111000000100000 @
b101011000111000000100000 G
b111000000100000 H
b111000000100000 O
b111000000100000 ,
b1 #
b1 <
b1 B
b1 K
b100000 &
b101011000111000000100000 /
b101011000111000000100000 3
b101011000111000000100000 5
b101011000111000000100000 6
b101011000111000000100000 >
b101011000111000000100000 D
b101011000111000000100000 M
1!
#220
b101011 -
b101011 I
b1011 1
b1011 2
b1011 4
b1011 F
b1011 N
0!
#230
b100 .
b100 9
bx '
bx A
b1011 -
b1011 I
b10 0
b10 P
b110 +
b100011 7
b0 8
b0 @
b1110011010000000000000000 G
b0 H
b0 O
b0 ,
bx $
bx =
bx C
bx L
b10 #
b10 <
b10 B
b10 K
b0 &
b10001101110011010000000000000000 /
b10001101110011010000000000000000 3
b10001101110011010000000000000000 5
b10001101110011010000000000000000 6
b10001101110011010000000000000000 >
b10001101110011010000000000000000 D
b10001101110011010000000000000000 M
1!
#240
b100 '
b100 A
b1100 -
b1100 I
b10 $
b10 =
b10 C
b10 L
b1100 1
b1100 2
b1100 4
b1100 F
b1100 N
0!
#250
b1110 -
b1110 I
b100 )
b100 ;
b100 E
b0 .
b0 9
b111 '
b111 A
b1011 0
b1011 P
b110010 +
b11001 7
b10 8
b10 @
b1101010110000000000000010 G
b10 H
b10 O
b10 ,
b101 $
b101 =
b101 C
b101 L
b10 &
b1100101101010110000000000000010 /
b1100101101010110000000000000010 3
b1100101101010110000000000000010 5
b1100101101010110000000000000010 6
b1100101101010110000000000000010 >
b1100101101010110000000000000010 D
b1100101101010110000000000000010 M
1!
#260
b10001 -
b10001 I
b1111 1
b1111 2
b1111 4
b1111 F
b1111 N
0!
#270
b1 .
b1 9
b10 '
b10 A
b1111 -
b1111 I
b0 0
b0 P
b0 +
b0 7
b100000 8
b111000000100000 @
b101011000111000000100000 G
b111000000100000 H
b111000000100000 O
b111000000100000 ,
b1 $
b1 =
b1 C
b1 L
b1 #
b1 <
b1 B
b1 K
b100000 &
b101011000111000000100000 /
b101011000111000000100000 3
b101011000111000000100000 5
b101011000111000000100000 6
b101011000111000000100000 >
b101011000111000000100000 D
b101011000111000000100000 M
1!
#280
b10000 -
b10000 I
b10000 1
b10000 2
b10000 4
b10000 F
b10000 N
0!
#290
1(
b11 .
b11 9
b111 '
b111 A
b10 0
b10 P
b10110 +
b101011 7
b0 8
b0 @
b1110010110000000000000000 G
b0 H
b0 O
b0 ,
b101 $
b101 =
b101 C
b101 L
b10 #
b10 <
b10 B
b10 K
b0 &
b10101101110010110000000000000000 /
b10101101110010110000000000000000 3
b10101101110010110000000000000000 5
b10101101110010110000000000000000 6
b10101101110010110000000000000000 >
b10101101110010110000000000000000 D
b10101101110010110000000000000000 M
1!
#300
b10001 -
b10001 I
b10001 1
b10001 2
b10001 4
b10001 F
b10001 N
0!
#310
b0 0
b0 P
0(
b1 .
b1 9
b1 '
b1 A
b0 +
b0 7
b100000 8
b111000000100000 @
b101010100111000000100000 G
b111000000100000 H
b111000000100000 O
b111000000100000 ,
b0 $
b0 =
b0 C
b0 L
b1 #
b1 <
b1 B
b1 K
b100000 &
b101010100111000000100000 /
b101010100111000000100000 3
b101010100111000000100000 5
b101010100111000000100000 6
b101010100111000000100000 >
b101010100111000000100000 D
b101010100111000000100000 M
1!
#320
b10010 -
b10010 I
b10010 1
b10010 2
b10010 4
b10010 F
b10010 N
0!
#330
1(
b11 .
b11 9
b11 '
b11 A
b101 0
b101 P
b10110 +
b101011 7
b0 8
b0 @
b1110011010000000000000000 G
b0 H
b0 O
b0 ,
b10 $
b10 =
b10 C
b10 L
b0 &
b10101101110011010000000000000000 /
b10101101110011010000000000000000 3
b10101101110011010000000000000000 5
b10101101110011010000000000000000 6
b10101101110011010000000000000000 >
b10101101110011010000000000000000 D
b10101101110011010000000000000000 M
1!
#340
b10011 -
b10011 I
b10011 1
b10011 2
b10011 4
b10011 F
b10011 N
0!
#350
b1100 -
b1100 I
b0 0
b0 P
b110 )
b110 ;
b110 E
0(
b0 .
b0 9
b0 '
b0 A
b100 +
b10 7
b1101 8
b1101 @
b1101 G
b1101 H
b1101 O
b1101 ,
b0 $
b0 =
b0 C
b0 L
b0 #
b0 <
b0 B
b0 K
b1101 &
b1000000000000000000000001101 /
b1000000000000000000000001101 3
b1000000000000000000000001101 5
b1000000000000000000000001101 6
b1000000000000000000000001101 >
b1000000000000000000000001101 D
b1000000000000000000000001101 M
1!
#360
b1101 1
b1101 2
b1101 4
b1101 F
b1101 N
0!
#370
b1 '
b1 A
b10 .
b10 9
b100 *
b100 :
b100 ?
b0 -
b0 I
b10 0
b10 P
b10000 +
b1000 7
b1 8
b1 @
b1010010100000000000000001 G
b1 H
b1 O
b1 ,
b1 &
b100001010010100000000000000001 /
b100001010010100000000000000001 3
b100001010010100000000000000001 5
b100001010010100000000000000001 6
b100001010010100000000000000001 >
b100001010010100000000000000001 D
b100001010010100000000000000001 M
1!
#380
b10 '
b10 A
b101 0
b101 P
b1 #
b1 <
b1 B
b1 K
b1 $
b1 =
b1 C
b1 L
b1110 1
b1110 2
b1110 4
b1110 F
b1110 N
0!
#390
b0 .
b0 9
b110 '
b110 A
b101 -
b101 I
b100 0
b100 P
b100 +
b10 7
b110 8
b110 @
b110 G
b110 H
b110 O
b110 ,
b0 $
b0 =
b0 C
b0 L
b0 #
b0 <
b0 B
b0 K
b110 &
b1000000000000000000000000110 /
b1000000000000000000000000110 3
b1000000000000000000000000110 5
b1000000000000000000000000110 6
b1000000000000000000000000110 >
b1000000000000000000000000110 D
b1000000000000000000000000110 M
1!
#400
b110 1
b110 2
b110 4
b110 F
b110 N
0!
#410
b11 )
b11 ;
b11 E
b11111111111111111111111111111101 '
b11111111111111111111111111111101 A
b110 -
b110 I
b0 0
b0 P
b110000 +
b11000 7
b111100 8
b1111111111111100 @
b1010010011111111111111100 G
b1111111111111100 H
b1111111111111100 O
b1111111111111100 ,
b10011 $
b10011 =
b10011 C
b10011 L
b1 #
b1 <
b1 B
b1 K
b111100 &
b1100001010010011111111111111100 /
b1100001010010011111111111111100 3
b1100001010010011111111111111100 5
b1100001010010011111111111111100 6
b1100001010010011111111111111100 >
b1100001010010011111111111111100 D
b1100001010010011111111111111100 M
1!
#420
b111 -
b111 I
b111 1
b111 2
b111 4
b111 F
b111 N
0!
#430
b0 *
b0 :
b0 ?
b1 .
b1 9
b10 '
b10 A
b100111 -
b100111 I
b0 +
b0 7
b100000 8
b111000000100000 @
b101010100111000000100000 G
b111000000100000 H
b111000000100000 O
b111000000100000 ,
b1 $
b1 =
b1 C
b1 L
b100000 &
b101010100111000000100000 /
b101010100111000000100000 3
b101010100111000000100000 5
b101010100111000000100000 6
b101010100111000000100000 >
b101010100111000000100000 D
b101010100111000000100000 M
1!
#440
b101000 -
b101000 I
b1000 1
b1000 2
b1000 4
b1000 F
b1000 N
0!
#450
b100 .
b100 9
b111 '
b111 A
b1000 -
b1000 I
b101 0
b101 P
b110 +
b100011 7
b0 8
b0 @
b1110010110000000000000000 G
b0 H
b0 O
b0 ,
b101 $
b101 =
b101 C
b101 L
b10 #
b10 <
b10 B
b10 K
b0 &
b10001101110010110000000000000000 /
b10001101110010110000000000000000 3
b10001101110010110000000000000000 5
b10001101110010110000000000000000 6
b10001101110010110000000000000000 >
b10001101110010110000000000000000 D
b10001101110010110000000000000000 M
1!
#460
b1001 -
b1001 I
b1001 1
b1001 2
b1001 4
b1001 F
b1001 N
0!
#470
b100 *
b100 :
b100 ?
b10 .
b10 9
b10 '
b10 A
b1010 -
b1010 I
b10000 +
b1000 7
b1 8
b1 @
b1010011000000000000000001 G
b1 H
b1 O
b1 ,
b1 $
b1 =
b1 C
b1 L
b1 #
b1 <
b1 B
b1 K
b1 &
b100001010011000000000000000001 /
b100001010011000000000000000001 3
b100001010011000000000000000001 5
b100001010011000000000000000001 6
b100001010011000000000000000001 >
b100001010011000000000000000001 D
b100001010011000000000000000001 M
1!
#480
b10 $
b10 =
b10 C
b10 L
b1010 1
b1010 2
b1010 4
b1010 F
b1010 N
0!
#490
b0 *
b0 :
b0 ?
b1 .
b1 9
b11 '
b11 A
b0 0
b0 P
b0 +
b0 7
b100000 8
b111000000100000 @
b101011000111000000100000 G
b111000000100000 H
b111000000100000 O
b111000000100000 ,
b100000 &
b101011000111000000100000 /
b101011000111000000100000 3
b101011000111000000100000 5
b101011000111000000100000 6
b101011000111000000100000 >
b101011000111000000100000 D
b101011000111000000100000 M
1!
#500
b1011 -
b1011 I
b1011 1
b1011 2
b1011 4
b1011 F
b1011 N
0!
#510
b100 .
b100 9
b101 '
b101 A
b111 0
b111 P
b110 +
b100011 7
b0 8
b0 @
b1110011010000000000000000 G
b0 H
b0 O
b0 ,
b11 #
b11 <
b11 B
b11 K
b0 &
b10001101110011010000000000000000 /
b10001101110011010000000000000000 3
b10001101110011010000000000000000 5
b10001101110011010000000000000000 6
b10001101110011010000000000000000 >
b10001101110011010000000000000000 D
b10001101110011010000000000000000 M
1!
#520
b1010 '
b1010 A
b1100 -
b1100 I
b111 $
b111 =
b111 C
b111 L
b1100 1
b1100 2
b1100 4
b1100 F
b1100 N
0!
#530
b100 )
b100 ;
b100 E
b0 .
b0 9
b1100 '
b1100 A
b1100 -
b1100 I
b1100 0
b1100 P
b110010 +
b11001 7
b10 8
b10 @
b1101010110000000000000010 G
b10 H
b10 O
b10 ,
b101 $
b101 =
b101 C
b101 L
b111 #
b111 <
b111 B
b111 K
b10 &
b1100101101010110000000000000010 /
b1100101101010110000000000000010 3
b1100101101010110000000000000010 5
b1100101101010110000000000000010 6
b1100101101010110000000000000010 >
b1100101101010110000000000000010 D
b1100101101010110000000000000010 M
1!
#540
b1101 -
b1101 I
b1101 1
b1101 2
b1101 4
b1101 F
b1101 N
0!
#550
b10 .
b10 9
b100 *
b100 :
b100 ?
b10 '
b10 A
b101 0
b101 P
b10000 +
b1000 7
b1 8
b1 @
b1010010100000000000000001 G
b1 H
b1 O
b1 ,
b1 $
b1 =
b1 C
b1 L
b1 #
b1 <
b1 B
b1 K
b1 &
b100001010010100000000000000001 /
b100001010010100000000000000001 3
b100001010010100000000000000001 5
b100001010010100000000000000001 6
b100001010010100000000000000001 >
b100001010010100000000000000001 D
b100001010010100000000000000001 M
1!
#560
b11 '
b11 A
b111 0
b111 P
b1110 -
b1110 I
b10 #
b10 <
b10 B
b10 K
b10 $
b10 =
b10 C
b10 L
b1110 1
b1110 2
b1110 4
b1110 F
b1110 N
0!
#570
b101 -
b101 I
b110 )
b110 ;
b110 E
b0 .
b0 9
b110 '
b110 A
b100 0
b100 P
b100 +
b10 7
b110 8
b110 @
b110 G
b110 H
b110 O
b110 ,
b0 $
b0 =
b0 C
b0 L
b0 #
b0 <
b0 B
b0 K
b110 &
b1000000000000000000000000110 /
b1000000000000000000000000110 3
b1000000000000000000000000110 5
b1000000000000000000000000110 6
b1000000000000000000000000110 >
b1000000000000000000000000110 D
b1000000000000000000000000110 M
1!
#580
b110 1
b110 2
b110 4
b110 F
b110 N
0!
#590
b11 )
b11 ;
b11 E
b11111111111111111111111111111110 '
b11111111111111111111111111111110 A
b110 -
b110 I
b0 0
b0 P
b110000 +
b11000 7
b111100 8
b1111111111111100 @
b1010010011111111111111100 G
b1111111111111100 H
b1111111111111100 O
b1111111111111100 ,
b10011 $
b10011 =
b10011 C
b10011 L
b10 #
b10 <
b10 B
b10 K
b111100 &
b1100001010010011111111111111100 /
b1100001010010011111111111111100 3
b1100001010010011111111111111100 5
b1100001010010011111111111111100 6
b1100001010010011111111111111100 >
b1100001010010011111111111111100 D
b1100001010010011111111111111100 M
1!
#600
b111 -
b111 I
b111 1
b111 2
b111 4
b111 F
b111 N
0!
#610
b0 *
b0 :
b0 ?
b1 .
b1 9
b11 '
b11 A
b0 +
b0 7
b100000 8
b111000000100000 @
b101010100111000000100000 G
b111000000100000 H
b111000000100000 O
b111000000100000 ,
b10 $
b10 =
b10 C
b10 L
b1 #
b1 <
b1 B
b1 K
b100000 &
b101010100111000000100000 /
b101010100111000000100000 3
b101010100111000000100000 5
b101010100111000000100000 6
b101010100111000000100000 >
b101010100111000000100000 D
b101010100111000000100000 M
1!
#620
b1000 -
b1000 I
b1000 1
b1000 2
b1000 4
b1000 F
b1000 N
0!
#630
b100 .
b100 9
b1000 '
b1000 A
b111 0
b111 P
b110 +
b100011 7
b0 8
b0 @
b1110010110000000000000000 G
b0 H
b0 O
b0 ,
b101 $
b101 =
b101 C
b101 L
b11 #
b11 <
b11 B
b11 K
b0 &
b10001101110010110000000000000000 /
b10001101110010110000000000000000 3
b10001101110010110000000000000000 5
b10001101110010110000000000000000 6
b10001101110010110000000000000000 >
b10001101110010110000000000000000 D
b10001101110010110000000000000000 M
1!
#640
b1010 '
b1010 A
b1001 -
b1001 I
b111 $
b111 =
b111 C
b111 L
b1001 1
b1001 2
b1001 4
b1001 F
b1001 N
0!
#650
b100 *
b100 :
b100 ?
b10 .
b10 9
b11 '
b11 A
b1010 -
b1010 I
b10000 +
b1000 7
b1 8
b1 @
b1010011000000000000000001 G
b1 H
b1 O
b1 ,
b10 $
b10 =
b10 C
b10 L
b10 #
b10 <
b10 B
b10 K
b1 &
b100001010011000000000000000001 /
b100001010011000000000000000001 3
b100001010011000000000000000001 5
b100001010011000000000000000001 6
b100001010011000000000000000001 >
b100001010011000000000000000001 D
b100001010011000000000000000001 M
1!
#660
b11 $
b11 =
b11 C
b11 L
b1010 1
b1010 2
b1010 4
b1010 F
b1010 N
0!
#670
b0 *
b0 :
b0 ?
b1 .
b1 9
b100 '
b100 A
b0 0
b0 P
b0 +
b0 7
b100000 8
b111000000100000 @
b101011000111000000100000 G
b111000000100000 H
b111000000100000 O
b111000000100000 ,
b1 #
b1 <
b1 B
b1 K
b100000 &
b101011000111000000100000 /
b101011000111000000100000 3
b101011000111000000100000 5
b101011000111000000100000 6
b101011000111000000100000 >
b101011000111000000100000 D
b101011000111000000100000 M
1!
#680
b1011 -
b1011 I
b1011 1
b1011 2
b1011 4
b1011 F
b1011 N
0!
#690
b100 .
b100 9
b1011 '
b1011 A
b1011 0
b1011 P
b110 +
b100011 7
b0 8
b0 @
b1110011010000000000000000 G
b0 H
b0 O
b0 ,
b111 $
b111 =
b111 C
b111 L
b100 #
b100 <
b100 B
b100 K
b0 &
b10001101110011010000000000000000 /
b10001101110011010000000000000000 3
b10001101110011010000000000000000 5
b10001101110011010000000000000000 6
b10001101110011010000000000000000 >
b10001101110011010000000000000000 D
b10001101110011010000000000000000 M
1!
#700
b1111 '
b1111 A
b1100 -
b1100 I
b1011 $
b1011 =
b1011 C
b1011 L
b1100 1
b1100 2
b1100 4
b1100 F
b1100 N
0!
#710
b100 )
b100 ;
b100 E
b0 .
b0 9
b10010 '
b10010 A
b1100 -
b1100 I
b0 0
b0 P
b110010 +
b11001 7
b10 8
b10 @
b1101010110000000000000010 G
b10 H
b10 O
b10 ,
b111 $
b111 =
b111 C
b111 L
b1011 #
b1011 <
b1011 B
b1011 K
b10 &
b1100101101010110000000000000010 /
b1100101101010110000000000000010 3
b1100101101010110000000000000010 5
b1100101101010110000000000000010 6
b1100101101010110000000000000010 >
b1100101101010110000000000000010 D
b1100101101010110000000000000010 M
1!
#720
b1101 -
b1101 I
b1101 1
b1101 2
b1101 4
b1101 F
b1101 N
0!
#730
b10 .
b10 9
b100 *
b100 :
b100 ?
b11 '
b11 A
b111 0
b111 P
b10000 +
b1000 7
b1 8
b1 @
b1010010100000000000000001 G
b1 H
b1 O
b1 ,
b10 $
b10 =
b10 C
b10 L
b10 #
b10 <
b10 B
b10 K
b1 &
b100001010010100000000000000001 /
b100001010010100000000000000001 3
b100001010010100000000000000001 5
b100001010010100000000000000001 6
b100001010010100000000000000001 >
b100001010010100000000000000001 D
b100001010010100000000000000001 M
1!
#740
b100 '
b100 A
b1011 0
b1011 P
b1110 -
b1110 I
b11 #
b11 <
b11 B
b11 K
b11 $
b11 =
b11 C
b11 L
b1110 1
b1110 2
b1110 4
b1110 F
b1110 N
0!
#750
b101 -
b101 I
b110 )
b110 ;
b110 E
b0 .
b0 9
b110 '
b110 A
b100 0
b100 P
b100 +
b10 7
b110 8
b110 @
b110 G
b110 H
b110 O
b110 ,
b0 $
b0 =
b0 C
b0 L
b0 #
b0 <
b0 B
b0 K
b110 &
b1000000000000000000000000110 /
b1000000000000000000000000110 3
b1000000000000000000000000110 5
b1000000000000000000000000110 6
b1000000000000000000000000110 >
b1000000000000000000000000110 D
b1000000000000000000000000110 M
1!
#760
b110 1
b110 2
b110 4
b110 F
b110 N
0!
#770
b11 )
b11 ;
b11 E
b11111111111111111111111111111111 '
b11111111111111111111111111111111 A
b110 -
b110 I
b0 0
b0 P
b110000 +
b11000 7
b111100 8
b1111111111111100 @
b1010010011111111111111100 G
b1111111111111100 H
b1111111111111100 O
b1111111111111100 ,
b10011 $
b10011 =
b10011 C
b10011 L
b11 #
b11 <
b11 B
b11 K
b111100 &
b1100001010010011111111111111100 /
b1100001010010011111111111111100 3
b1100001010010011111111111111100 5
b1100001010010011111111111111100 6
b1100001010010011111111111111100 >
b1100001010010011111111111111100 D
b1100001010010011111111111111100 M
1!
#780
b111 -
b111 I
b111 1
b111 2
b111 4
b111 F
b111 N
0!
#790
b0 *
b0 :
b0 ?
b1 .
b1 9
b100 '
b100 A
b0 +
b0 7
b100000 8
b111000000100000 @
b101010100111000000100000 G
b111000000100000 H
b111000000100000 O
b111000000100000 ,
b11 $
b11 =
b11 C
b11 L
b1 #
b1 <
b1 B
b1 K
b100000 &
b101010100111000000100000 /
b101010100111000000100000 3
b101010100111000000100000 5
b101010100111000000100000 6
b101010100111000000100000 >
b101010100111000000100000 D
b101010100111000000100000 M
1!
#800
b1000 -
b1000 I
b1000 1
b1000 2
b1000 4
b1000 F
b1000 N
0!
#810
b100 .
b100 9
b1011 '
b1011 A
b1011 0
b1011 P
b110 +
b100011 7
b0 8
b0 @
b1110010110000000000000000 G
b0 H
b0 O
b0 ,
b111 $
b111 =
b111 C
b111 L
b100 #
b100 <
b100 B
b100 K
b0 &
b10001101110010110000000000000000 /
b10001101110010110000000000000000 3
b10001101110010110000000000000000 5
b10001101110010110000000000000000 6
b10001101110010110000000000000000 >
b10001101110010110000000000000000 D
b10001101110010110000000000000000 M
1!
#820
b1111 '
b1111 A
b1001 -
b1001 I
b1011 $
b1011 =
b1011 C
b1011 L
b1001 1
b1001 2
b1001 4
b1001 F
b1001 N
0!
#830
b100 *
b100 :
b100 ?
b10 .
b10 9
b100 '
b100 A
b1010 -
b1010 I
b10000 +
b1000 7
b1 8
b1 @
b1010011000000000000000001 G
b1 H
b1 O
b1 ,
b11 $
b11 =
b11 C
b11 L
b11 #
b11 <
b11 B
b11 K
b1 &
b100001010011000000000000000001 /
b100001010011000000000000000001 3
b100001010011000000000000000001 5
b100001010011000000000000000001 6
b100001010011000000000000000001 >
b100001010011000000000000000001 D
b100001010011000000000000000001 M
1!
#840
b100 $
b100 =
b100 C
b100 L
b1010 1
b1010 2
b1010 4
b1010 F
b1010 N
0!
#850
b0 *
b0 :
b0 ?
b1 .
b1 9
b101 '
b101 A
b0 0
b0 P
b0 +
b0 7
b100000 8
b111000000100000 @
b101011000111000000100000 G
b111000000100000 H
b111000000100000 O
b111000000100000 ,
b1 #
b1 <
b1 B
b1 K
b100000 &
b101011000111000000100000 /
b101011000111000000100000 3
b101011000111000000100000 5
b101011000111000000100000 6
b101011000111000000100000 >
b101011000111000000100000 D
b101011000111000000100000 M
1!
#860
b1011 -
b1011 I
b1011 1
b1011 2
b1011 4
b1011 F
b1011 N
0!
#870
b100 .
b100 9
b10000 '
b10000 A
b1001 0
b1001 P
b110 +
b100011 7
b0 8
b0 @
b1110011010000000000000000 G
b0 H
b0 O
b0 ,
b1011 $
b1011 =
b1011 C
b1011 L
b101 #
b101 <
b101 B
b101 K
b0 &
b10001101110011010000000000000000 /
b10001101110011010000000000000000 3
b10001101110011010000000000000000 5
b10001101110011010000000000000000 6
b10001101110011010000000000000000 >
b10001101110011010000000000000000 D
b10001101110011010000000000000000 M
1!
#880
b1110 '
b1110 A
b1100 -
b1100 I
b1001 $
b1001 =
b1001 C
b1001 L
b1100 1
b1100 2
b1100 4
b1100 F
b1100 N
0!
#890
b1110 -
b1110 I
b100 )
b100 ;
b100 E
b0 .
b0 9
b10100 '
b10100 A
b101 0
b101 P
b110010 +
b11001 7
b10 8
b10 @
b1101010110000000000000010 G
b10 H
b10 O
b10 ,
b1011 $
b1011 =
b1011 C
b1011 L
b1001 #
b1001 <
b1001 B
b1001 K
b10 &
b1100101101010110000000000000010 /
b1100101101010110000000000000010 3
b1100101101010110000000000000010 5
b1100101101010110000000000000010 6
b1100101101010110000000000000010 >
b1100101101010110000000000000010 D
b1100101101010110000000000000010 M
1!
#900
b10001 -
b10001 I
b1111 1
b1111 2
b1111 4
b1111 F
b1111 N
0!
